digraph "RCS.TDataMngrLib.TMainController.LoadSrvConnectionSettings"
{
  edge [fontname="Helvetica",fontsize="10",labelfontname="Helvetica",labelfontsize="10"];
  node [fontname="Helvetica",fontsize="10",shape=record];
  rankdir="LR";
  Node1 [label="RCS.TDataMngrLib.TMainController.\lLoadSrvConnectionSettings",height=0.2,width=0.4,color="black", fillcolor="grey75", style="filled", fontcolor="black"];
  Node1 -> Node2 [color="midnightblue",fontsize="10",style="solid",fontname="Helvetica"];
  Node2 [label="RCS.TDataMngrLib.Communication.\lInspection.IConnectionsObserver.Observe",height=0.2,width=0.4,color="black", fillcolor="white", style="filled",URL="$interface_r_c_s_1_1_t_data_mngr_lib_1_1_communication_1_1_inspection_1_1_i_connections_observer.html#af4c9cb54d2239d4c9d8445dab0030611",tooltip="Начать слежение. Вначале проверяется соединение с БД, а затем с Сервером. "];
  Node1 -> Node3 [color="midnightblue",fontsize="10",style="solid",fontname="Helvetica"];
  Node3 [label="RCS.TDataMngrLib.Communication.\lInspection.IConnectionsObserver.Stop\lObserve",height=0.2,width=0.4,color="black", fillcolor="white", style="filled",URL="$interface_r_c_s_1_1_t_data_mngr_lib_1_1_communication_1_1_inspection_1_1_i_connections_observer.html#a2149032672568a6235cced2153bf5d45",tooltip="Остановить слежение "];
}
