digraph "RCS.TDataMngrLib.Communication.Inspection.ConnectionsObserver"
{
  edge [fontname="Helvetica",fontsize="10",labelfontname="Helvetica",labelfontsize="10"];
  node [fontname="Helvetica",fontsize="10",shape=record];
  Node1 [label="RCS.TDataMngrLib.Communication.\lInspection.ConnectionsObserver",height=0.2,width=0.4,color="black", fillcolor="grey75", style="filled", fontcolor="black"];
  Node2 -> Node1 [dir="back",color="midnightblue",fontsize="10",style="solid",fontname="Helvetica"];
  Node2 [label="IConnectionsObserver",height=0.2,width=0.4,color="black", fillcolor="white", style="filled",URL="$interface_r_c_s_1_1_t_data_mngr_lib_1_1_communication_1_1_inspection_1_1_i_connections_observer.html",tooltip="Интерфейс инспектора соединений. Событие EventConnectionsAvailable появляется только при доступности ..."];
}
