digraph "Graphical Class Hierarchy"
{
  edge [fontname="Helvetica",fontsize="10",labelfontname="Helvetica",labelfontsize="10"];
  node [fontname="Helvetica",fontsize="10",shape=record];
  rankdir="LR";
  Node1 [label="BasePacketStatistics",height=0.2,width=0.4,color="grey75", fillcolor="white", style="filled"];
  Node1 -> Node2 [dir="back",color="midnightblue",fontsize="10",style="solid",fontname="Helvetica"];
  Node2 [label="RCS.TDataMngrLib.Communication.\lPacketStatistics",height=0.2,width=0.4,color="black", fillcolor="white", style="filled",URL="$class_r_c_s_1_1_t_data_mngr_lib_1_1_communication_1_1_packet_statistics.html"];
}
