digraph "RCS.TDataMngrLib.DataManagement.TDBCommand.TLostDataListDBCommand"
{
  edge [fontname="Helvetica",fontsize="10",labelfontname="Helvetica",labelfontsize="10"];
  node [fontname="Helvetica",fontsize="10",shape=record];
  Node1 [label="RCS.TDataMngrLib.DataManagement.\lTDBCommand.TLostDataListDBCommand",height=0.2,width=0.4,color="black", fillcolor="grey75", style="filled", fontcolor="black"];
  Node2 -> Node1 [dir="back",color="midnightblue",fontsize="10",style="solid"];
  Node2 [label="TDbCommand",height=0.2,width=0.4,color="black", fillcolor="white", style="filled",URL="$class_r_c_s_1_1_t_data_mngr_lib_1_1_data_management_1_1_t_d_b_command_1_1_t_db_command.html"];
  Node3 -> Node2 [dir="back",color="midnightblue",fontsize="10",style="solid"];
  Node3 [label="SrvDbCommand",height=0.2,width=0.4,color="grey75", fillcolor="white", style="filled"];
}
